EESchema Schematic File Version 4
EELAYER 30 0
EELAYER END
$Descr A4 11693 8268
encoding utf-8
Sheet 1 1
Title ""
Date ""
Rev ""
Comp ""
Comment1 ""
Comment2 ""
Comment3 ""
Comment4 ""
$EndDescr
$Comp
L Connector-ML:RPi_GPIO J1
U 1 1 5515D39E
P 1150 2750
F 0 "J1" H 1900 3000 60  0000 C CNN
F 1 "RPi_GPIO" H 1900 2900 60  0000 C CNN
F 2 "RPi_Hat:Samtec_HLE-120-02-XXX-DV-BE-XX-XX" H 1150 2750 60  0001 C CNN
F 3 "" H 1150 2750 60  0000 C CNN
	1    1150 2750
	1    0    0    -1  
$EndComp
$Comp
L Connector-ML:RPi_GPIO J2
U 1 1 5516AE26
P 7300 3500
F 0 "J2" H 8050 3750 60  0000 C CNN
F 1 "RPi_GPIO" H 8050 3650 60  0000 C CNN
F 2 "RPi_Hat:Pin_Header_Straight_2x20" H 7300 3500 60  0001 C CNN
F 3 "" H 7300 3500 60  0000 C CNN
	1    7300 3500
	1    0    0    -1  
$EndComp
Text Notes 2550 5000 0    100  Italic 0
Surface Mount Connector
Text Notes 6550 5900 0    100  Italic 0
Thru-Hole Connector
Text Notes 2550 5200 0    100  Italic 0
Socket on bottom
$Comp
L Regulator_Switching:MAX17574 U2
U 1 1 60B4DB81
P 5350 1650
F 0 "U2" H 5350 2431 50  0000 C CNN
F 1 "MAX17574" H 5350 2340 50  0000 C CNN
F 2 "Package_DFN_QFN:QFN-24-1EP_4x5mm_P0.5mm_EP2.65x3.65mm" H 5500 1100 50  0001 L CNN
F 3 "https://datasheets.maximintegrated.com/en/ds/MAX17574.pdf" H 3950 2250 50  0001 C CNN
	1    5350 1650
	1    0    0    -1  
$EndComp
$Comp
L power:GND #PWR0102
U 1 1 60B6DFEA
P 4850 2550
F 0 "#PWR0102" H 4850 2300 50  0001 C CNN
F 1 "GND" H 4855 2377 50  0000 C CNN
F 2 "" H 4850 2550 50  0001 C CNN
F 3 "" H 4850 2550 50  0001 C CNN
	1    4850 2550
	1    0    0    -1  
$EndComp
Wire Wire Line
	5250 2400 5250 2250
Wire Wire Line
	5250 2400 5350 2400
Wire Wire Line
	5350 2400 5350 2250
$Comp
L pspice:C C1
U 1 1 60B92CA7
P 3650 1600
F 0 "C1" H 3828 1646 50  0000 L CNN
F 1 "2.2u" H 3828 1555 50  0000 L CNN
F 2 "Capacitor_THT:CP_Radial_D8.0mm_P3.80mm" H 3650 1600 50  0001 C CNN
F 3 "~" H 3650 1600 50  0001 C CNN
	1    3650 1600
	1    0    0    -1  
$EndComp
$Comp
L pspice:C C2
U 1 1 60B934E4
P 4100 1600
F 0 "C2" H 4278 1646 50  0000 L CNN
F 1 "2.2u" H 4278 1555 50  0000 L CNN
F 2 "Capacitor_THT:CP_Radial_D8.0mm_P3.80mm" H 4100 1600 50  0001 C CNN
F 3 "~" H 4100 1600 50  0001 C CNN
	1    4100 1600
	1    0    0    -1  
$EndComp
Wire Wire Line
	3350 1350 3650 1350
Connection ~ 3650 1350
Wire Wire Line
	3650 1350 4100 1350
Connection ~ 4100 1350
Wire Wire Line
	4100 1350 4450 1350
Wire Wire Line
	4850 1450 4600 1450
Wire Wire Line
	4600 1450 4600 1350
Connection ~ 4600 1350
Wire Wire Line
	4600 1350 4850 1350
$Comp
L power:GND #PWR02
U 1 1 60BA3441
P 3850 2000
F 0 "#PWR02" H 3850 1750 50  0001 C CNN
F 1 "GND" H 3855 1827 50  0000 C CNN
F 2 "" H 3850 2000 50  0001 C CNN
F 3 "" H 3850 2000 50  0001 C CNN
	1    3850 2000
	1    0    0    -1  
$EndComp
Wire Wire Line
	3650 1850 3650 2000
Wire Wire Line
	3650 2000 3850 2000
Wire Wire Line
	4100 1850 4100 2000
Wire Wire Line
	4100 2000 3850 2000
Connection ~ 3850 2000
$Comp
L power:+12V #PWR01
U 1 1 60BA6C01
P 3350 1350
F 0 "#PWR01" H 3350 1200 50  0001 C CNN
F 1 "+12V" H 3365 1523 50  0000 C CNN
F 2 "" H 3350 1350 50  0001 C CNN
F 3 "" H 3350 1350 50  0001 C CNN
	1    3350 1350
	1    0    0    -1  
$EndComp
$Comp
L power:GND #PWR08
U 1 1 60BA9D38
P 6100 2650
F 0 "#PWR08" H 6100 2400 50  0001 C CNN
F 1 "GND" H 6105 2477 50  0000 C CNN
F 2 "" H 6100 2650 50  0001 C CNN
F 3 "" H 6100 2650 50  0001 C CNN
	1    6100 2650
	1    0    0    -1  
$EndComp
$Comp
L pspice:INDUCTOR L1
U 1 1 60BABC82
P 6750 1450
F 0 "L1" H 6750 1665 50  0000 C CNN
F 1 "10u" H 6750 1574 50  0000 C CNN
F 2 "Capacitor_THT:CP_Radial_D8.0mm_P3.80mm" H 6750 1450 50  0001 C CNN
F 3 "~" H 6750 1450 50  0001 C CNN
	1    6750 1450
	1    0    0    -1  
$EndComp
$Comp
L pspice:C C6
U 1 1 60BACDE0
P 6150 1250
F 0 "C6" V 5835 1250 50  0000 C CNN
F 1 "0.1u" V 5926 1250 50  0000 C CNN
F 2 "Capacitor_THT:CP_Radial_D8.0mm_P3.80mm" H 6150 1250 50  0001 C CNN
F 3 "~" H 6150 1250 50  0001 C CNN
	1    6150 1250
	0    1    1    0   
$EndComp
Wire Wire Line
	5850 1450 6400 1450
Wire Wire Line
	6400 1250 6400 1450
Connection ~ 6400 1450
Wire Wire Line
	6400 1450 6500 1450
Wire Wire Line
	7000 1450 7050 1450
$Comp
L pspice:C C7
U 1 1 60BBC2E3
P 7050 1700
F 0 "C7" H 7228 1746 50  0000 L CNN
F 1 "22u" H 7228 1655 50  0000 L CNN
F 2 "Capacitor_THT:CP_Radial_D8.0mm_P3.80mm" H 7050 1700 50  0001 C CNN
F 3 "~" H 7050 1700 50  0001 C CNN
	1    7050 1700
	1    0    0    -1  
$EndComp
Connection ~ 7050 1450
Wire Wire Line
	7050 1450 7450 1450
$Comp
L pspice:C C8
U 1 1 60BBCAEC
P 7450 1700
F 0 "C8" H 7628 1746 50  0000 L CNN
F 1 "22u" H 7628 1655 50  0000 L CNN
F 2 "Capacitor_THT:CP_Radial_D8.0mm_P3.80mm" H 7450 1700 50  0001 C CNN
F 3 "~" H 7450 1700 50  0001 C CNN
	1    7450 1700
	1    0    0    -1  
$EndComp
Connection ~ 7450 1450
$Comp
L Device:R_US R9
U 1 1 60BC0011
P 7900 1600
F 0 "R9" H 7968 1646 50  0000 L CNN
F 1 "105k" H 7968 1555 50  0000 L CNN
F 2 "Resistor_THT:R_Axial_DIN0309_L9.0mm_D3.2mm_P2.54mm_Vertical" V 7940 1590 50  0001 C CNN
F 3 "~" H 7900 1600 50  0001 C CNN
	1    7900 1600
	1    0    0    -1  
$EndComp
$Comp
L Device:R_US R10
U 1 1 60BC0FC0
P 7900 2350
F 0 "R10" H 7968 2396 50  0000 L CNN
F 1 "22.6k" H 7968 2305 50  0000 L CNN
F 2 "Resistor_THT:R_Axial_DIN0309_L9.0mm_D3.2mm_P2.54mm_Vertical" V 7940 2340 50  0001 C CNN
F 3 "~" H 7900 2350 50  0001 C CNN
	1    7900 2350
	1    0    0    -1  
$EndComp
Wire Wire Line
	7450 1450 7900 1450
Connection ~ 7900 1450
Wire Wire Line
	7900 1450 8350 1450
$Comp
L power:GND #PWR012
U 1 1 60BC42FD
P 7250 1950
F 0 "#PWR012" H 7250 1700 50  0001 C CNN
F 1 "GND" H 7255 1777 50  0000 C CNN
F 2 "" H 7250 1950 50  0001 C CNN
F 3 "" H 7250 1950 50  0001 C CNN
	1    7250 1950
	1    0    0    -1  
$EndComp
Wire Wire Line
	7450 1950 7250 1950
Connection ~ 7250 1950
Wire Wire Line
	7250 1950 7050 1950
$Comp
L power:GND #PWR013
U 1 1 60BCB2BD
P 7900 2500
F 0 "#PWR013" H 7900 2250 50  0001 C CNN
F 1 "GND" H 7905 2327 50  0000 C CNN
F 2 "" H 7900 2500 50  0001 C CNN
F 3 "" H 7900 2500 50  0001 C CNN
	1    7900 2500
	1    0    0    -1  
$EndComp
Wire Wire Line
	7900 1750 7900 2150
Wire Wire Line
	5850 1750 6700 1750
Wire Wire Line
	6700 1750 6700 2150
Wire Wire Line
	6700 2150 7900 2150
Connection ~ 7900 2150
Wire Wire Line
	7900 2150 7900 2200
$Comp
L pspice:C C4
U 1 1 60BD27F4
P 5600 750
F 0 "C4" H 5422 704 50  0000 R CNN
F 1 "0.1u" H 5422 795 50  0000 R CNN
F 2 "Capacitor_THT:CP_Radial_D8.0mm_P3.80mm" H 5600 750 50  0001 C CNN
F 3 "~" H 5600 750 50  0001 C CNN
	1    5600 750 
	0    -1   -1   0   
$EndComp
$Comp
L Device:R_US R8
U 1 1 60BD456C
P 6750 950
F 0 "R8" V 6545 950 50  0000 C CNN
F 1 "4.7" V 6636 950 50  0000 C CNN
F 2 "Resistor_THT:R_Axial_DIN0309_L9.0mm_D3.2mm_P2.54mm_Vertical" V 6790 940 50  0001 C CNN
F 3 "~" H 6750 950 50  0001 C CNN
	1    6750 950 
	0    1    1    0   
$EndComp
Wire Wire Line
	7900 950  7900 1450
Wire Wire Line
	6900 950  7900 950 
$Comp
L pspice:C C5
U 1 1 60BA9547
P 6100 2300
F 0 "C5" H 6278 2346 50  0000 L CNN
F 1 "2.2u" H 6278 2255 50  0000 L CNN
F 2 "Capacitor_THT:CP_Radial_D8.0mm_P3.80mm" H 6100 2300 50  0001 C CNN
F 3 "~" H 6100 2300 50  0001 C CNN
	1    6100 2300
	1    0    0    -1  
$EndComp
$Comp
L Transistor_FET:DMG2301L Q2
U 1 1 60BE573A
P 8750 1550
F 0 "Q2" V 9092 1550 50  0000 C CNN
F 1 "DMG2301L" V 9001 1550 50  0000 C CNN
F 2 "Package_TO_SOT_SMD:SOT-23_Handsoldering" H 8950 1475 50  0001 L CIN
F 3 "https://www.diodes.com/assets/Datasheets/DMG2301L.pdf" H 8750 1550 50  0001 L CNN
	1    8750 1550
	0    -1   -1   0   
$EndComp
$Comp
L Device:Q_PNP_BCE Q1
U 1 1 60BF7665
P 8450 1900
F 0 "Q1" H 8641 1854 50  0000 L CNN
F 1 "Q_PNP_BCE" H 8641 1945 50  0000 L CNN
F 2 "Package_TO_SOT_THT:TO-92_HandSolder" H 8650 2000 50  0001 C CNN
F 3 "~" H 8450 1900 50  0001 C CNN
	1    8450 1900
	-1   0    0    1   
$EndComp
$Comp
L Device:Q_PNP_BCE Q3
U 1 1 60BF8352
P 9200 1900
F 0 "Q3" H 9390 1854 50  0000 L CNN
F 1 "Q_PNP_BCE" H 9390 1945 50  0000 L CNN
F 2 "Package_TO_SOT_THT:TO-92_HandSolder" H 9400 2000 50  0001 C CNN
F 3 "~" H 9200 1900 50  0001 C CNN
	1    9200 1900
	1    0    0    1   
$EndComp
$Comp
L Device:R_US R11
U 1 1 60BF91A9
P 8350 2400
F 0 "R11" H 8418 2446 50  0000 L CNN
F 1 "10k" H 8418 2355 50  0000 L CNN
F 2 "Resistor_THT:R_Axial_DIN0309_L9.0mm_D3.2mm_P2.54mm_Vertical" V 8390 2390 50  0001 C CNN
F 3 "~" H 8350 2400 50  0001 C CNN
	1    8350 2400
	1    0    0    -1  
$EndComp
$Comp
L Device:R_US R12
U 1 1 60BF97F7
P 9300 2450
F 0 "R12" H 9368 2496 50  0000 L CNN
F 1 "10k" H 9368 2405 50  0000 L CNN
F 2 "Resistor_THT:R_Axial_DIN0309_L9.0mm_D3.2mm_P2.54mm_Vertical" V 9340 2440 50  0001 C CNN
F 3 "~" H 9300 2450 50  0001 C CNN
	1    9300 2450
	1    0    0    -1  
$EndComp
Wire Wire Line
	9000 1900 8700 1900
Wire Wire Line
	8700 1900 8700 2150
Wire Wire Line
	8700 2150 8350 2150
Wire Wire Line
	8350 2150 8350 2100
Connection ~ 8700 1900
Wire Wire Line
	8700 1900 8650 1900
Wire Wire Line
	8350 2150 8350 2250
Connection ~ 8350 2150
Wire Wire Line
	8750 1750 8900 1750
Wire Wire Line
	8900 1750 8900 2200
Wire Wire Line
	8900 2200 9300 2200
Wire Wire Line
	9300 2200 9300 2100
Wire Wire Line
	9300 2300 9300 2200
Connection ~ 9300 2200
Wire Wire Line
	8950 1450 9300 1450
Wire Wire Line
	9300 1700 9300 1450
Connection ~ 9300 1450
Wire Wire Line
	8350 1700 8350 1450
Connection ~ 8350 1450
Wire Wire Line
	8350 1450 8550 1450
$Comp
L power:GND #PWR014
U 1 1 60BFFE0E
P 8350 2550
F 0 "#PWR014" H 8350 2300 50  0001 C CNN
F 1 "GND" H 8355 2377 50  0000 C CNN
F 2 "" H 8350 2550 50  0001 C CNN
F 3 "" H 8350 2550 50  0001 C CNN
	1    8350 2550
	1    0    0    -1  
$EndComp
$Comp
L power:GND #PWR015
U 1 1 60C000FE
P 9300 2600
F 0 "#PWR015" H 9300 2350 50  0001 C CNN
F 1 "GND" H 9305 2427 50  0000 C CNN
F 2 "" H 9300 2600 50  0001 C CNN
F 3 "" H 9300 2600 50  0001 C CNN
	1    9300 2600
	1    0    0    -1  
$EndComp
Wire Wire Line
	10250 1450 10250 3500
Wire Wire Line
	10250 3500 9000 3500
Wire Wire Line
	9300 1450 10250 1450
$Comp
L power:GND #PWR016
U 1 1 60C48F7E
P 9300 3850
F 0 "#PWR016" H 9300 3600 50  0001 C CNN
F 1 "GND" H 9305 3677 50  0000 C CNN
F 2 "" H 9300 3850 50  0001 C CNN
F 3 "" H 9300 3850 50  0001 C CNN
	1    9300 3850
	1    0    0    -1  
$EndComp
Wire Wire Line
	9000 3700 9300 3700
Wire Wire Line
	9300 3700 9300 3850
$Comp
L pspice:OPAMP U1
U 1 1 60B7DFD6
P 5100 3900
F 0 "U1" H 5444 3946 50  0000 L CNN
F 1 "OP191" H 5444 3855 50  0000 L CNN
F 2 "Package_DIP:DIP-8_W7.62mm_Socket_LongPads" H 5100 3900 50  0001 C CNN
F 3 "~" H 5100 3900 50  0001 C CNN
	1    5100 3900
	1    0    0    -1  
$EndComp
Wire Wire Line
	4450 1350 4450 2950
Wire Wire Line
	4450 3800 4800 3800
Connection ~ 4450 1350
Wire Wire Line
	4450 1350 4600 1350
$Comp
L Device:R_US R1
U 1 1 60B8072E
P 4450 3100
F 0 "R1" H 4518 3146 50  0000 L CNN
F 1 "1k" H 4518 3055 50  0000 L CNN
F 2 "Resistor_THT:R_Axial_DIN0309_L9.0mm_D3.2mm_P2.54mm_Vertical" V 4490 3090 50  0001 C CNN
F 3 "~" H 4450 3100 50  0001 C CNN
	1    4450 3100
	1    0    0    -1  
$EndComp
Wire Wire Line
	4450 3250 4450 3800
$Comp
L Device:R_US R2
U 1 1 60B81132
P 4550 4500
F 0 "R2" H 4618 4546 50  0000 L CNN
F 1 "100" H 4618 4455 50  0000 L CNN
F 2 "Resistor_THT:R_Axial_DIN0309_L9.0mm_D3.2mm_P2.54mm_Vertical" V 4590 4490 50  0001 C CNN
F 3 "~" H 4550 4500 50  0001 C CNN
	1    4550 4500
	1    0    0    -1  
$EndComp
$Comp
L power:GND #PWR05
U 1 1 60B81946
P 5000 4300
F 0 "#PWR05" H 5000 4050 50  0001 C CNN
F 1 "GND" H 5005 4127 50  0000 C CNN
F 2 "" H 5000 4300 50  0001 C CNN
F 3 "" H 5000 4300 50  0001 C CNN
	1    5000 4300
	1    0    0    -1  
$EndComp
$Comp
L power:GND #PWR03
U 1 1 60B82288
P 4550 4750
F 0 "#PWR03" H 4550 4500 50  0001 C CNN
F 1 "GND" H 4555 4577 50  0000 C CNN
F 2 "" H 4550 4750 50  0001 C CNN
F 3 "" H 4550 4750 50  0001 C CNN
	1    4550 4750
	1    0    0    -1  
$EndComp
Wire Wire Line
	4450 3800 4450 4350
Wire Wire Line
	4450 4350 4550 4350
Connection ~ 4450 3800
Wire Wire Line
	4800 4000 4800 4500
Wire Wire Line
	4800 4500 5400 4500
Wire Wire Line
	5400 4500 5400 4450
Connection ~ 4800 4500
Wire Wire Line
	5000 3500 7100 3500
Wire Wire Line
	5400 3900 5400 3800
Wire Wire Line
	5400 3800 7100 3800
Connection ~ 5400 3900
$Comp
L Device:R_US R4
U 1 1 60B8FBF5
P 5400 4300
F 0 "R4" H 5332 4254 50  0000 R CNN
F 1 "100" H 5332 4345 50  0000 R CNN
F 2 "Resistor_THT:R_Axial_DIN0309_L9.0mm_D3.2mm_P2.54mm_Vertical" V 5440 4290 50  0001 C CNN
F 3 "~" H 5400 4300 50  0001 C CNN
	1    5400 4300
	-1   0    0    1   
$EndComp
Wire Wire Line
	5400 4150 5400 3900
$Comp
L power:GND #PWR011
U 1 1 60B91AA2
P 6750 4800
F 0 "#PWR011" H 6750 4550 50  0001 C CNN
F 1 "GND" H 6755 4627 50  0000 C CNN
F 2 "" H 6750 4800 50  0001 C CNN
F 3 "" H 6750 4800 50  0001 C CNN
	1    6750 4800
	1    0    0    -1  
$EndComp
Wire Wire Line
	7100 4700 6750 4700
Wire Wire Line
	6750 4700 6750 4800
Wire Wire Line
	5900 1250 5850 1250
Wire Wire Line
	5350 750  5350 950 
Wire Wire Line
	5350 950  6600 950 
$Comp
L power:GND #PWR07
U 1 1 60BAABAC
P 5850 750
F 0 "#PWR07" H 5850 500 50  0001 C CNN
F 1 "GND" H 5855 577 50  0000 C CNN
F 2 "" H 5850 750 50  0001 C CNN
F 3 "" H 5850 750 50  0001 C CNN
	1    5850 750 
	1    0    0    -1  
$EndComp
$Comp
L Device:LED D1
U 1 1 60BB24CD
P 5800 4750
F 0 "D1" V 5839 4632 50  0000 R CNN
F 1 "LED" V 5748 4632 50  0000 R CNN
F 2 "LED_THT:LED_D5.0mm_Clear" H 5800 4750 50  0001 C CNN
F 3 "~" H 5800 4750 50  0001 C CNN
	1    5800 4750
	0    -1   -1   0   
$EndComp
$Comp
L Device:LED D2
U 1 1 60BB3969
P 6100 4500
F 0 "D2" V 6139 4382 50  0000 R CNN
F 1 "LED" V 6048 4382 50  0000 R CNN
F 2 "LED_THT:LED_D5.0mm_Clear" H 6100 4500 50  0001 C CNN
F 3 "~" H 6100 4500 50  0001 C CNN
	1    6100 4500
	0    -1   -1   0   
$EndComp
$Comp
L Device:LED D3
U 1 1 60BB43A3
P 6400 4400
F 0 "D3" V 6439 4282 50  0000 R CNN
F 1 "LED" V 6348 4282 50  0000 R CNN
F 2 "LED_THT:LED_D5.0mm_Clear" H 6400 4400 50  0001 C CNN
F 3 "~" H 6400 4400 50  0001 C CNN
	1    6400 4400
	0    -1   -1   0   
$EndComp
Wire Wire Line
	7100 4000 5800 4000
Wire Wire Line
	5800 4000 5800 4600
Wire Wire Line
	6100 4350 6100 4100
Wire Wire Line
	6100 4100 7100 4100
Wire Wire Line
	6400 4250 6400 4200
Wire Wire Line
	6400 4200 7100 4200
$Comp
L Device:R_US R5
U 1 1 60BBD7D9
P 5800 5150
F 0 "R5" H 5732 5104 50  0000 R CNN
F 1 "100" H 5732 5195 50  0000 R CNN
F 2 "Resistor_THT:R_Axial_DIN0309_L9.0mm_D3.2mm_P2.54mm_Vertical" V 5840 5140 50  0001 C CNN
F 3 "~" H 5800 5150 50  0001 C CNN
	1    5800 5150
	-1   0    0    1   
$EndComp
Wire Wire Line
	4800 4500 4800 4650
Wire Wire Line
	4800 4650 4900 4650
$Comp
L Device:R_US R3
U 1 1 60B86AAD
P 4900 4800
F 0 "R3" H 4832 4754 50  0000 R CNN
F 1 "1k" H 4832 4845 50  0000 R CNN
F 2 "Resistor_THT:R_Axial_DIN0309_L9.0mm_D3.2mm_P2.54mm_Vertical" V 4940 4790 50  0001 C CNN
F 3 "~" H 4900 4800 50  0001 C CNN
	1    4900 4800
	-1   0    0    1   
$EndComp
$Comp
L power:GND #PWR04
U 1 1 60B91526
P 4900 5050
F 0 "#PWR04" H 4900 4800 50  0001 C CNN
F 1 "GND" H 4905 4877 50  0000 C CNN
F 2 "" H 4900 5050 50  0001 C CNN
F 3 "" H 4900 5050 50  0001 C CNN
	1    4900 5050
	1    0    0    -1  
$EndComp
$Comp
L power:GND #PWR06
U 1 1 60BC1F66
P 5800 5350
F 0 "#PWR06" H 5800 5100 50  0001 C CNN
F 1 "GND" H 5805 5177 50  0000 C CNN
F 2 "" H 5800 5350 50  0001 C CNN
F 3 "" H 5800 5350 50  0001 C CNN
	1    5800 5350
	1    0    0    -1  
$EndComp
$Comp
L Device:R_US R6
U 1 1 60BCA24A
P 6100 4900
F 0 "R6" H 6032 4854 50  0000 R CNN
F 1 "100" H 6032 4945 50  0000 R CNN
F 2 "Resistor_THT:R_Axial_DIN0309_L9.0mm_D3.2mm_P2.54mm_Vertical" V 6140 4890 50  0001 C CNN
F 3 "~" H 6100 4900 50  0001 C CNN
	1    6100 4900
	-1   0    0    1   
$EndComp
$Comp
L power:GND #PWR09
U 1 1 60BCA250
P 6100 5150
F 0 "#PWR09" H 6100 4900 50  0001 C CNN
F 1 "GND" H 6105 4977 50  0000 C CNN
F 2 "" H 6100 5150 50  0001 C CNN
F 3 "" H 6100 5150 50  0001 C CNN
	1    6100 5150
	1    0    0    -1  
$EndComp
$Comp
L Device:R_US R7
U 1 1 60BCC16E
P 6400 4850
F 0 "R7" H 6332 4804 50  0000 R CNN
F 1 "100" H 6332 4895 50  0000 R CNN
F 2 "Resistor_THT:R_Axial_DIN0309_L9.0mm_D3.2mm_P2.54mm_Vertical" V 6440 4840 50  0001 C CNN
F 3 "~" H 6400 4850 50  0001 C CNN
	1    6400 4850
	-1   0    0    1   
$EndComp
$Comp
L power:GND #PWR010
U 1 1 60BCC174
P 6400 5050
F 0 "#PWR010" H 6400 4800 50  0001 C CNN
F 1 "GND" H 6405 4877 50  0000 C CNN
F 2 "" H 6400 5050 50  0001 C CNN
F 3 "" H 6400 5050 50  0001 C CNN
	1    6400 5050
	1    0    0    -1  
$EndComp
$Comp
L pspice:C C3
U 1 1 60B80CC0
P 4850 2200
F 0 "C3" H 5028 2246 50  0000 L CNN
F 1 "22000p" H 5028 2155 50  0000 L CNN
F 2 "Capacitor_THT:CP_Radial_D8.0mm_P3.80mm" H 4850 2200 50  0001 C CNN
F 3 "~" H 4850 2200 50  0001 C CNN
	1    4850 2200
	1    0    0    -1  
$EndComp
Wire Wire Line
	5250 2400 5250 2500
Wire Wire Line
	5250 2500 4850 2500
Wire Wire Line
	4850 2500 4850 2550
Connection ~ 5250 2400
Wire Wire Line
	4850 2450 4850 2500
Connection ~ 4850 2500
Wire Wire Line
	5350 950  5350 1050
Connection ~ 5350 950 
Wire Wire Line
	5000 3500 5000 3600
Wire Wire Line
	5800 4900 5800 5000
Wire Wire Line
	5800 5300 5800 5350
Wire Wire Line
	6100 5150 6100 5050
Wire Wire Line
	6100 4750 6100 4650
Wire Wire Line
	6400 4550 6400 4700
Wire Wire Line
	6400 5000 6400 5050
Wire Wire Line
	4550 4650 4550 4750
Wire Wire Line
	4900 4950 4900 5050
Wire Wire Line
	5000 4300 5000 4200
Wire Wire Line
	5850 2050 6100 2050
Wire Wire Line
	6100 2550 6100 2650
$EndSCHEMATC
