Version 4
SHEET 1 880 680
WIRE 256 64 192 64
WIRE 256 80 256 64
WIRE 192 128 192 64
WIRE -64 144 -128 144
WIRE 32 144 16 144
WIRE 160 144 32 144
WIRE -128 160 -128 144
WIRE 368 160 224 160
WIRE 448 160 368 160
WIRE 160 176 128 176
WIRE 192 208 192 192
WIRE 256 224 224 224
WIRE 368 224 368 160
WIRE 368 224 336 224
WIRE 32 256 32 144
WIRE 128 256 128 176
WIRE 224 256 224 224
WIRE 224 256 128 256
WIRE -128 336 -128 240
WIRE 32 368 32 336
WIRE 128 368 128 336
WIRE 128 368 32 368
WIRE 128 400 128 368
FLAG -128 336 0
FLAG 128 400 0
FLAG 368 400 Vpi
IOPIN 368 400 Out
FLAG 192 208 Vpi
FLAG 368 480 0
FLAG 256 80 0
FLAG 448 160 Vout
SYMBOL Opamps\\OP191 192 224 M180
SYMATTR InstName U1
SYMBOL voltage -128 144 R0
WINDOW 123 0 0 Left 0
WINDOW 39 0 0 Left 0
SYMATTR InstName V1
SYMATTR Value 0
SYMBOL res 32 128 R90
WINDOW 0 0 56 VBottom 2
WINDOW 3 32 56 VTop 2
SYMATTR InstName R1
SYMATTR Value 1k
SYMBOL res 16 240 R0
SYMATTR InstName R3
SYMATTR Value 100
SYMBOL res 112 240 R0
SYMATTR InstName R2
SYMATTR Value 1k
SYMBOL res 352 208 R90
WINDOW 0 0 56 VBottom 2
WINDOW 3 32 56 VTop 2
SYMATTR InstName R4
SYMATTR Value 100
SYMBOL voltage 368 384 R0
WINDOW 123 0 0 Left 0
WINDOW 39 0 0 Left 0
SYMATTR InstName Vout_pi
SYMATTR Value 3.3
TEXT -160 504 Left 2 !.dc V1 5 16 0.1
