EESchema Schematic File Version 4
LIBS:LED-cache
EELAYER 29 0
EELAYER END
$Descr A4 11693 8268
encoding utf-8
Sheet 1 1
Title ""
Date ""
Rev ""
Comp ""
Comment1 ""
Comment2 ""
Comment3 ""
Comment4 ""
$EndDescr
$Comp
L Transistor_BJT:2N2219 Q1
U 1 1 60BA58E1
P 4600 3500
F 0 "Q1" H 4790 3546 50  0000 L CNN
F 1 "2N2219" H 4790 3455 50  0000 L CNN
F 2 "Package_TO_SOT_THT:TO-39-3" H 4800 3425 50  0001 L CIN
F 3 "http://www.onsemi.com/pub_link/Collateral/2N2219-D.PDF" H 4600 3500 50  0001 L CNN
	1    4600 3500
	1    0    0    -1  
$EndComp
$Comp
L Device:R_Small_US R1
U 1 1 60BA7012
P 4700 4450
F 0 "R1" H 4768 4496 50  0000 L CNN
F 1 "10" H 4768 4405 50  0000 L CNN
F 2 "" H 4700 4450 50  0001 C CNN
F 3 "~" H 4700 4450 50  0001 C CNN
	1    4700 4450
	1    0    0    -1  
$EndComp
$Comp
L Transistor_BJT:2N2219 Q2
U 1 1 60BA7ACC
P 5800 4000
F 0 "Q2" H 5990 4046 50  0000 L CNN
F 1 "2N2219" H 5990 3955 50  0000 L CNN
F 2 "Package_TO_SOT_THT:TO-39-3" H 6000 3925 50  0001 L CIN
F 3 "http://www.onsemi.com/pub_link/Collateral/2N2219-D.PDF" H 5800 4000 50  0001 L CNN
	1    5800 4000
	1    0    0    -1  
$EndComp
$Comp
L Device:R_Small_US R2
U 1 1 60BA8080
P 5900 4750
F 0 "R2" H 5968 4796 50  0000 L CNN
F 1 "10" H 5968 4705 50  0000 L CNN
F 2 "" H 5900 4750 50  0001 C CNN
F 3 "~" H 5900 4750 50  0001 C CNN
	1    5900 4750
	1    0    0    -1  
$EndComp
$Comp
L Transistor_BJT:2N2219 Q3
U 1 1 60BA87E9
P 7100 4400
F 0 "Q3" H 7290 4446 50  0000 L CNN
F 1 "2N2219" H 7290 4355 50  0000 L CNN
F 2 "Package_TO_SOT_THT:TO-39-3" H 7300 4325 50  0001 L CIN
F 3 "http://www.onsemi.com/pub_link/Collateral/2N2219-D.PDF" H 7100 4400 50  0001 L CNN
	1    7100 4400
	1    0    0    -1  
$EndComp
$Comp
L Device:R_Small_US R3
U 1 1 60BA94E9
P 7200 5150
F 0 "R3" H 7268 5196 50  0000 L CNN
F 1 "10" H 7268 5105 50  0000 L CNN
F 2 "" H 7200 5150 50  0001 C CNN
F 3 "~" H 7200 5150 50  0001 C CNN
	1    7200 5150
	1    0    0    -1  
$EndComp
$Comp
L Device:LED LED_1
U 1 1 60BA9D8C
P 4700 5050
F 0 "LED_1" V 4739 4933 50  0000 R CNN
F 1 "LED" V 4648 4933 50  0000 R CNN
F 2 "" H 4700 5050 50  0001 C CNN
F 3 "~" H 4700 5050 50  0001 C CNN
	1    4700 5050
	0    -1   -1   0   
$EndComp
$Comp
L Device:LED LED_2
U 1 1 60BADFDB
P 5900 5350
F 0 "LED_2" V 5939 5233 50  0000 R CNN
F 1 "LED" V 5848 5233 50  0000 R CNN
F 2 "" H 5900 5350 50  0001 C CNN
F 3 "~" H 5900 5350 50  0001 C CNN
	1    5900 5350
	0    -1   -1   0   
$EndComp
$Comp
L Device:LED LED_3
U 1 1 60BAEEC6
P 7200 5650
F 0 "LED_3" V 7239 5533 50  0000 R CNN
F 1 "LED" V 7148 5533 50  0000 R CNN
F 2 "" H 7200 5650 50  0001 C CNN
F 3 "~" H 7200 5650 50  0001 C CNN
	1    7200 5650
	0    -1   -1   0   
$EndComp
$Comp
L pspice:VSOURCE V?
U 1 1 60BB068A
P 6450 2300
F 0 "V?" H 6084 2254 50  0000 R CNN
F 1 "20" H 6084 2345 50  0000 R CNN
F 2 "" H 6450 2300 50  0001 C CNN
F 3 "~" H 6450 2300 50  0001 C CNN
	1    6450 2300
	-1   0    0    1   
$EndComp
$Comp
L power:GND #PWR?
U 1 1 60BB19D3
P 4700 5650
F 0 "#PWR?" H 4700 5400 50  0001 C CNN
F 1 "GND" H 4705 5477 50  0000 C CNN
F 2 "" H 4700 5650 50  0001 C CNN
F 3 "" H 4700 5650 50  0001 C CNN
	1    4700 5650
	1    0    0    -1  
$EndComp
$Comp
L power:GND #PWR?
U 1 1 60BB21EC
P 5900 5800
F 0 "#PWR?" H 5900 5550 50  0001 C CNN
F 1 "GND" H 5905 5627 50  0000 C CNN
F 2 "" H 5900 5800 50  0001 C CNN
F 3 "" H 5900 5800 50  0001 C CNN
	1    5900 5800
	1    0    0    -1  
$EndComp
$Comp
L power:GND #PWR?
U 1 1 60BB2703
P 7200 6050
F 0 "#PWR?" H 7200 5800 50  0001 C CNN
F 1 "GND" H 7205 5877 50  0000 C CNN
F 2 "" H 7200 6050 50  0001 C CNN
F 3 "" H 7200 6050 50  0001 C CNN
	1    7200 6050
	1    0    0    -1  
$EndComp
Wire Wire Line
	6450 2600 5900 2600
Wire Wire Line
	4700 2600 4700 3300
Wire Wire Line
	4700 3700 4700 4000
Wire Wire Line
	4700 4550 4700 4900
Wire Wire Line
	4700 5650 4700 5200
Wire Wire Line
	5900 5800 5900 5500
Wire Wire Line
	5900 5200 5900 4850
Wire Wire Line
	5900 4650 5900 4400
Wire Wire Line
	5900 3800 5900 2600
Connection ~ 5900 2600
Wire Wire Line
	5900 2600 4700 2600
Wire Wire Line
	5600 4000 4700 4000
Connection ~ 4700 4000
Wire Wire Line
	4700 4000 4700 4350
Wire Wire Line
	6900 4400 5900 4400
Connection ~ 5900 4400
Wire Wire Line
	5900 4400 5900 4200
Wire Wire Line
	7200 6050 7200 5800
Wire Wire Line
	7200 5500 7200 5250
Wire Wire Line
	7200 5050 7200 4600
Wire Wire Line
	7200 4200 7200 2600
Wire Wire Line
	7200 2600 6450 2600
Connection ~ 6450 2600
Wire Wire Line
	4700 2600 4000 2600
Wire Wire Line
	4000 2600 4000 3500
Wire Wire Line
	4000 3500 4400 3500
Connection ~ 4700 2600
$Comp
L power:GND #PWR?
U 1 1 60BB6CC3
P 6450 1450
F 0 "#PWR?" H 6450 1200 50  0001 C CNN
F 1 "GND" H 6455 1277 50  0000 C CNN
F 2 "" H 6450 1450 50  0001 C CNN
F 3 "" H 6450 1450 50  0001 C CNN
	1    6450 1450
	-1   0    0    1   
$EndComp
Wire Wire Line
	6450 2000 6450 1450
$EndSCHEMATC
