EESchema Schematic File Version 4
EELAYER 30 0
EELAYER END
$Descr A4 11693 8268
encoding utf-8
Sheet 1 1
Title ""
Date ""
Rev ""
Comp ""
Comment1 ""
Comment2 ""
Comment3 ""
Comment4 ""
$EndDescr
$Comp
L Regulator_Switching:MAX17574 U1
U 1 1 60B94961
P 4300 3400
F 0 "U1" H 4300 4181 50  0000 C CNN
F 1 "MAX17574" H 4300 4090 50  0000 C CNN
F 2 "Package_DFN_QFN:QFN-24-1EP_4x5mm_P0.5mm_EP2.65x3.65mm" H 4450 2850 50  0001 L CNN
F 3 "https://datasheets.maximintegrated.com/en/ds/MAX17574.pdf" H 2900 4000 50  0001 C CNN
	1    4300 3400
	1    0    0    -1  
$EndComp
$Comp
L power:GND #PWR03
U 1 1 60B94967
P 3800 4200
F 0 "#PWR03" H 3800 3950 50  0001 C CNN
F 1 "GND" H 3805 4027 50  0000 C CNN
F 2 "" H 3800 4200 50  0001 C CNN
F 3 "" H 3800 4200 50  0001 C CNN
	1    3800 4200
	1    0    0    -1  
$EndComp
$Comp
L pspice:C C3
U 1 1 60B9496D
P 3800 3950
F 0 "C3" H 3978 3996 50  0000 L CNN
F 1 "22000p" H 3978 3905 50  0000 L CNN
F 2 "" H 3800 3950 50  0001 C CNN
F 3 "~" H 3800 3950 50  0001 C CNN
	1    3800 3950
	1    0    0    -1  
$EndComp
Wire Wire Line
	3800 4150 4200 4150
Wire Wire Line
	4200 4150 4200 4000
Wire Wire Line
	4200 4150 4300 4150
Wire Wire Line
	4300 4150 4300 4000
Connection ~ 4200 4150
$Comp
L pspice:C C1
U 1 1 60B94978
P 2600 3350
F 0 "C1" H 2778 3396 50  0000 L CNN
F 1 "2.2u" H 2778 3305 50  0000 L CNN
F 2 "" H 2600 3350 50  0001 C CNN
F 3 "~" H 2600 3350 50  0001 C CNN
	1    2600 3350
	1    0    0    -1  
$EndComp
$Comp
L pspice:C C2
U 1 1 60B9497E
P 3050 3350
F 0 "C2" H 3228 3396 50  0000 L CNN
F 1 "2.2u" H 3228 3305 50  0000 L CNN
F 2 "" H 3050 3350 50  0001 C CNN
F 3 "~" H 3050 3350 50  0001 C CNN
	1    3050 3350
	1    0    0    -1  
$EndComp
Wire Wire Line
	2300 3100 2600 3100
Connection ~ 2600 3100
Wire Wire Line
	2600 3100 3050 3100
Connection ~ 3050 3100
Wire Wire Line
	3050 3100 3550 3100
Wire Wire Line
	3800 3200 3550 3200
Wire Wire Line
	3550 3200 3550 3100
Connection ~ 3550 3100
Wire Wire Line
	3550 3100 3800 3100
$Comp
L power:GND #PWR02
U 1 1 60B9498D
P 2800 3750
F 0 "#PWR02" H 2800 3500 50  0001 C CNN
F 1 "GND" H 2805 3577 50  0000 C CNN
F 2 "" H 2800 3750 50  0001 C CNN
F 3 "" H 2800 3750 50  0001 C CNN
	1    2800 3750
	1    0    0    -1  
$EndComp
Wire Wire Line
	2600 3600 2600 3750
Wire Wire Line
	2600 3750 2800 3750
Wire Wire Line
	3050 3600 3050 3750
Wire Wire Line
	3050 3750 2800 3750
Connection ~ 2800 3750
$Comp
L power:+12V #PWR01
U 1 1 60B94998
P 2300 3100
F 0 "#PWR01" H 2300 2950 50  0001 C CNN
F 1 "+12V" H 2315 3273 50  0000 C CNN
F 2 "" H 2300 3100 50  0001 C CNN
F 3 "" H 2300 3100 50  0001 C CNN
	1    2300 3100
	1    0    0    -1  
$EndComp
$Comp
L power:GND #PWR05
U 1 1 60B9499E
P 4800 4300
F 0 "#PWR05" H 4800 4050 50  0001 C CNN
F 1 "GND" H 4805 4127 50  0000 C CNN
F 2 "" H 4800 4300 50  0001 C CNN
F 3 "" H 4800 4300 50  0001 C CNN
	1    4800 4300
	1    0    0    -1  
$EndComp
$Comp
L pspice:INDUCTOR L1
U 1 1 60B949A4
P 5700 3200
F 0 "L1" H 5700 3415 50  0000 C CNN
F 1 "10u" H 5700 3324 50  0000 C CNN
F 2 "" H 5700 3200 50  0001 C CNN
F 3 "~" H 5700 3200 50  0001 C CNN
	1    5700 3200
	1    0    0    -1  
$EndComp
$Comp
L pspice:C C6
U 1 1 60B949AA
P 5100 3000
F 0 "C6" V 4785 3000 50  0000 C CNN
F 1 "0.1u" V 4876 3000 50  0000 C CNN
F 2 "" H 5100 3000 50  0001 C CNN
F 3 "~" H 5100 3000 50  0001 C CNN
	1    5100 3000
	0    1    1    0   
$EndComp
Wire Wire Line
	4800 3200 5350 3200
Wire Wire Line
	5350 3000 5350 3200
Connection ~ 5350 3200
Wire Wire Line
	5350 3200 5450 3200
Wire Wire Line
	5950 3200 6000 3200
$Comp
L pspice:C C7
U 1 1 60B949B5
P 6000 3450
F 0 "C7" H 6178 3496 50  0000 L CNN
F 1 "22u" H 6178 3405 50  0000 L CNN
F 2 "" H 6000 3450 50  0001 C CNN
F 3 "~" H 6000 3450 50  0001 C CNN
	1    6000 3450
	1    0    0    -1  
$EndComp
Connection ~ 6000 3200
Wire Wire Line
	6000 3200 6400 3200
$Comp
L pspice:C C8
U 1 1 60B949BD
P 6400 3450
F 0 "C8" H 6578 3496 50  0000 L CNN
F 1 "22u" H 6578 3405 50  0000 L CNN
F 2 "" H 6400 3450 50  0001 C CNN
F 3 "~" H 6400 3450 50  0001 C CNN
	1    6400 3450
	1    0    0    -1  
$EndComp
Connection ~ 6400 3200
$Comp
L Device:R_US R2
U 1 1 60B949C4
P 6850 3350
F 0 "R2" H 6918 3396 50  0000 L CNN
F 1 "105k" H 6918 3305 50  0000 L CNN
F 2 "" V 6890 3340 50  0001 C CNN
F 3 "~" H 6850 3350 50  0001 C CNN
	1    6850 3350
	1    0    0    -1  
$EndComp
$Comp
L Device:R_US R3
U 1 1 60B949CA
P 6850 4100
F 0 "R3" H 6918 4146 50  0000 L CNN
F 1 "22.6k" H 6918 4055 50  0000 L CNN
F 2 "" V 6890 4090 50  0001 C CNN
F 3 "~" H 6850 4100 50  0001 C CNN
	1    6850 4100
	1    0    0    -1  
$EndComp
Wire Wire Line
	6400 3200 6850 3200
Connection ~ 6850 3200
Wire Wire Line
	6850 3200 7300 3200
$Comp
L power:GND #PWR06
U 1 1 60B949D3
P 6200 3700
F 0 "#PWR06" H 6200 3450 50  0001 C CNN
F 1 "GND" H 6205 3527 50  0000 C CNN
F 2 "" H 6200 3700 50  0001 C CNN
F 3 "" H 6200 3700 50  0001 C CNN
	1    6200 3700
	1    0    0    -1  
$EndComp
Wire Wire Line
	6400 3700 6200 3700
Connection ~ 6200 3700
Wire Wire Line
	6200 3700 6000 3700
$Comp
L power:GND #PWR07
U 1 1 60B949DC
P 6850 4250
F 0 "#PWR07" H 6850 4000 50  0001 C CNN
F 1 "GND" H 6855 4077 50  0000 C CNN
F 2 "" H 6850 4250 50  0001 C CNN
F 3 "" H 6850 4250 50  0001 C CNN
	1    6850 4250
	1    0    0    -1  
$EndComp
Wire Wire Line
	6850 3500 6850 3900
Wire Wire Line
	4800 3500 5650 3500
Wire Wire Line
	5650 3500 5650 3900
Wire Wire Line
	5650 3900 6850 3900
Connection ~ 6850 3900
Wire Wire Line
	6850 3900 6850 3950
$Comp
L pspice:C C4
U 1 1 60B949E8
P 4300 2550
F 0 "C4" H 4122 2504 50  0000 R CNN
F 1 "0.1u" H 4122 2595 50  0000 R CNN
F 2 "" H 4300 2550 50  0001 C CNN
F 3 "~" H 4300 2550 50  0001 C CNN
	1    4300 2550
	-1   0    0    1   
$EndComp
Wire Wire Line
	4300 2300 4700 2300
Wire Wire Line
	4700 2300 4700 2350
$Comp
L power:GND #PWR04
U 1 1 60B949F0
P 4700 2350
F 0 "#PWR04" H 4700 2100 50  0001 C CNN
F 1 "GND" H 4705 2177 50  0000 C CNN
F 2 "" H 4700 2350 50  0001 C CNN
F 3 "" H 4700 2350 50  0001 C CNN
	1    4700 2350
	1    0    0    -1  
$EndComp
$Comp
L Device:R_US R1
U 1 1 60B949F6
P 5700 2700
F 0 "R1" V 5495 2700 50  0000 C CNN
F 1 "4.7" V 5586 2700 50  0000 C CNN
F 2 "" V 5740 2690 50  0001 C CNN
F 3 "~" H 5700 2700 50  0001 C CNN
	1    5700 2700
	0    1    1    0   
$EndComp
Wire Wire Line
	4350 2700 5550 2700
Wire Wire Line
	6850 2700 6850 3200
Wire Wire Line
	5850 2700 6850 2700
$Comp
L pspice:C C5
U 1 1 60B949FF
P 4800 4050
F 0 "C5" H 4978 4096 50  0000 L CNN
F 1 "2.2u" H 4978 4005 50  0000 L CNN
F 2 "" H 4800 4050 50  0001 C CNN
F 3 "~" H 4800 4050 50  0001 C CNN
	1    4800 4050
	1    0    0    -1  
$EndComp
$Comp
L Transistor_FET:DMG2301L Q2
U 1 1 60B94A05
P 7700 3300
F 0 "Q2" V 8042 3300 50  0000 C CNN
F 1 "DMG2301L" V 7951 3300 50  0000 C CNN
F 2 "Package_TO_SOT_SMD:SOT-23" H 7900 3225 50  0001 L CIN
F 3 "https://www.diodes.com/assets/Datasheets/DMG2301L.pdf" H 7700 3300 50  0001 L CNN
	1    7700 3300
	0    -1   -1   0   
$EndComp
$Comp
L Device:Q_PNP_BCE Q1
U 1 1 60B94A0B
P 7400 3650
F 0 "Q1" H 7591 3604 50  0000 L CNN
F 1 "Q_PNP_BCE" H 7591 3695 50  0000 L CNN
F 2 "" H 7600 3750 50  0001 C CNN
F 3 "~" H 7400 3650 50  0001 C CNN
	1    7400 3650
	-1   0    0    1   
$EndComp
$Comp
L Device:Q_PNP_BCE Q3
U 1 1 60B94A11
P 8150 3650
F 0 "Q3" H 8340 3604 50  0000 L CNN
F 1 "Q_PNP_BCE" H 8340 3695 50  0000 L CNN
F 2 "" H 8350 3750 50  0001 C CNN
F 3 "~" H 8150 3650 50  0001 C CNN
	1    8150 3650
	1    0    0    1   
$EndComp
$Comp
L Device:R_US R4
U 1 1 60B94A17
P 7300 4150
F 0 "R4" H 7368 4196 50  0000 L CNN
F 1 "10k" H 7368 4105 50  0000 L CNN
F 2 "" V 7340 4140 50  0001 C CNN
F 3 "~" H 7300 4150 50  0001 C CNN
	1    7300 4150
	1    0    0    -1  
$EndComp
$Comp
L Device:R_US R5
U 1 1 60B94A1D
P 8250 4200
F 0 "R5" H 8318 4246 50  0000 L CNN
F 1 "10k" H 8318 4155 50  0000 L CNN
F 2 "" V 8290 4190 50  0001 C CNN
F 3 "~" H 8250 4200 50  0001 C CNN
	1    8250 4200
	1    0    0    -1  
$EndComp
Wire Wire Line
	7950 3650 7650 3650
Wire Wire Line
	7650 3650 7650 3900
Wire Wire Line
	7650 3900 7300 3900
Wire Wire Line
	7300 3900 7300 3850
Connection ~ 7650 3650
Wire Wire Line
	7650 3650 7600 3650
Wire Wire Line
	7300 3900 7300 4000
Connection ~ 7300 3900
Wire Wire Line
	7700 3500 7850 3500
Wire Wire Line
	7850 3500 7850 3950
Wire Wire Line
	7850 3950 8250 3950
Wire Wire Line
	8250 3950 8250 3850
Wire Wire Line
	8250 4050 8250 3950
Connection ~ 8250 3950
Wire Wire Line
	7900 3200 8250 3200
Wire Wire Line
	8250 3450 8250 3200
Connection ~ 8250 3200
Wire Wire Line
	7300 3450 7300 3200
Connection ~ 7300 3200
Wire Wire Line
	7300 3200 7500 3200
$Comp
L power:GND #PWR08
U 1 1 60B94A37
P 7300 4300
F 0 "#PWR08" H 7300 4050 50  0001 C CNN
F 1 "GND" H 7305 4127 50  0000 C CNN
F 2 "" H 7300 4300 50  0001 C CNN
F 3 "" H 7300 4300 50  0001 C CNN
	1    7300 4300
	1    0    0    -1  
$EndComp
$Comp
L power:GND #PWR09
U 1 1 60B94A3D
P 8250 4350
F 0 "#PWR09" H 8250 4100 50  0001 C CNN
F 1 "GND" H 8255 4177 50  0000 C CNN
F 2 "" H 8250 4350 50  0001 C CNN
F 3 "" H 8250 4350 50  0001 C CNN
	1    8250 4350
	1    0    0    -1  
$EndComp
Wire Wire Line
	8250 3200 9200 3200
Text Notes 7300 7550 0    118  ~ 0
Voltage Regulator 
Text Notes 8350 7650 0    79   ~ 0
31/05/2021
Text Notes 10700 7650 0    79   ~ 0
1
Text Label 9200 3200 0    79   ~ 0
5V_3A
$EndSCHEMATC
