EESchema Schematic File Version 4
EELAYER 30 0
EELAYER END
$Descr A4 11693 8268
encoding utf-8
Sheet 1 1
Title ""
Date ""
Rev ""
Comp ""
Comment1 ""
Comment2 ""
Comment3 ""
Comment4 ""
$EndDescr
$Comp
L pspice:OPAMP U1
U 1 1 60B5F9BB
P 5050 3650
F 0 "U1" H 5394 3696 50  0000 L CNN
F 1 "op191" H 5394 3605 50  0000 L CNN
F 2 "" H 5050 3650 50  0001 C CNN
F 3 "~" H 5050 3650 50  0001 C CNN
	1    5050 3650
	1    0    0    -1  
$EndComp
$Comp
L Device:R_US R1
U 1 1 60B60370
P 4100 3550
F 0 "R1" V 3895 3550 50  0000 C CNN
F 1 "1k" V 3986 3550 50  0000 C CNN
F 2 "" V 4140 3540 50  0001 C CNN
F 3 "~" H 4100 3550 50  0001 C CNN
	1    4100 3550
	0    1    1    0   
$EndComp
$Comp
L Device:R_US R4
U 1 1 60B62131
P 5500 4200
F 0 "R4" V 5295 4200 50  0000 C CNN
F 1 "100" V 5386 4200 50  0000 C CNN
F 2 "" V 5540 4190 50  0001 C CNN
F 3 "~" H 5500 4200 50  0001 C CNN
	1    5500 4200
	0    1    1    0   
$EndComp
$Comp
L Device:R_US R3
U 1 1 60B6411A
P 4500 4450
F 0 "R3" H 4432 4404 50  0000 R CNN
F 1 "1k" H 4432 4495 50  0000 R CNN
F 2 "" V 4540 4440 50  0001 C CNN
F 3 "~" H 4500 4450 50  0001 C CNN
	1    4500 4450
	-1   0    0    1   
$EndComp
$Comp
L Device:R_US R2
U 1 1 60B65381
P 4250 4450
F 0 "R2" H 4182 4404 50  0000 R CNN
F 1 "100" H 4182 4495 50  0000 R CNN
F 2 "" V 4290 4440 50  0001 C CNN
F 3 "~" H 4250 4450 50  0001 C CNN
	1    4250 4450
	-1   0    0    1   
$EndComp
Wire Wire Line
	4750 3550 4250 3550
Wire Wire Line
	4250 3550 4250 4300
Connection ~ 4250 3550
Wire Wire Line
	5350 3650 5850 3650
Wire Wire Line
	4750 3750 4500 3750
Wire Wire Line
	4500 3750 4500 4200
Wire Wire Line
	5350 4200 4500 4200
Connection ~ 4500 4200
Wire Wire Line
	4500 4200 4500 4300
Wire Wire Line
	5700 4200 5850 4200
Wire Wire Line
	5850 4200 5850 3650
Connection ~ 5850 3650
Wire Wire Line
	5850 3650 6050 3650
Wire Wire Line
	4500 4600 4350 4600
$Comp
L power:GND #PWR01
U 1 1 60B67DA3
P 4350 4600
F 0 "#PWR01" H 4350 4350 50  0001 C CNN
F 1 "GND" H 4355 4427 50  0000 C CNN
F 2 "" H 4350 4600 50  0001 C CNN
F 3 "" H 4350 4600 50  0001 C CNN
	1    4350 4600
	1    0    0    -1  
$EndComp
Connection ~ 4350 4600
Wire Wire Line
	4350 4600 4250 4600
Wire Wire Line
	3950 3550 3450 3550
Wire Wire Line
	4950 3350 4950 3200
Wire Wire Line
	4950 3200 4900 3200
Text GLabel 4900 3200 0    50   Input ~ 0
3V3
$Comp
L power:GND #PWR02
U 1 1 60B692FE
P 4950 3950
F 0 "#PWR02" H 4950 3700 50  0001 C CNN
F 1 "GND" H 4955 3777 50  0000 C CNN
F 2 "" H 4950 3950 50  0001 C CNN
F 3 "" H 4950 3950 50  0001 C CNN
	1    4950 3950
	1    0    0    -1  
$EndComp
Text Label 3450 3550 0    50   ~ 0
Vin
Text Label 6050 3650 0    50   ~ 0
Vout
Text Notes 7400 7550 0    114  ~ 0
Voltmeter
Text Notes 8100 7650 0    79   ~ 0
31/05/2021
Text Notes 10600 7650 0    79   ~ 0
1
$EndSCHEMATC
